module gitlab.com/ms-example/users-service

go 1.19

require (
	github.com/Shopify/sarama v1.38.1
	github.com/caarlos0/env/v8 v8.0.0
	github.com/go-ozzo/ozzo-validation/v4 v4.3.0
	github.com/golang-jwt/jwt v3.2.2+incompatible
	github.com/golang/mock v1.6.0
	github.com/google/uuid v1.3.0
	github.com/grpc-ecosystem/go-grpc-prometheus v1.2.0
	github.com/jackc/pgx/v5 v5.3.1
	github.com/julienschmidt/httprouter v1.3.0
	github.com/lib/pq v1.10.7
	github.com/pressly/goose/v3 v3.10.0
	github.com/prometheus/client_golang v1.15.0
	github.com/rs/zerolog v1.29.1
	github.com/stretchr/testify v1.8.2
	gitlab.com/ms-example/protobuf v0.5.0
	go.opentelemetry.io/contrib/instrumentation/google.golang.org/grpc/otelgrpc v0.40.0
	go.opentelemetry.io/otel v1.14.0
	go.opentelemetry.io/otel/exporters/jaeger v1.14.0
	go.opentelemetry.io/otel/sdk v1.14.0
	go.opentelemetry.io/otel/trace v1.14.0
	golang.org/x/crypto v0.7.0
	golang.org/x/sync v0.1.0
	google.golang.org/grpc v1.54.0
	google.golang.org/protobuf v1.30.0
)

require (
	github.com/asaskevich/govalidator v0.0.0-20200108200545-475eaeb16496 // indirect
	github.com/beorn7/perks v1.0.1 // indirect
	github.com/cespare/xxhash/v2 v2.2.0 // indirect
	github.com/davecgh/go-spew v1.1.1 // indirect
	github.com/eapache/go-resiliency v1.3.0 // indirect
	github.com/eapache/go-xerial-snappy v0.0.0-20230111030713-bf00bc1b83b6 // indirect
	github.com/eapache/queue v1.1.0 // indirect
	github.com/go-logr/logr v1.2.3 // indirect
	github.com/go-logr/stdr v1.2.2 // indirect
	github.com/golang/protobuf v1.5.3 // indirect
	github.com/golang/snappy v0.0.4 // indirect
	github.com/hashicorp/errwrap v1.0.0 // indirect
	github.com/hashicorp/go-multierror v1.1.1 // indirect
	github.com/hashicorp/go-uuid v1.0.3 // indirect
	github.com/jackc/pgpassfile v1.0.0 // indirect
	github.com/jackc/pgservicefile v0.0.0-20221227161230-091c0ba34f0a // indirect
	github.com/jackc/puddle/v2 v2.2.0 // indirect
	github.com/jcmturner/aescts/v2 v2.0.0 // indirect
	github.com/jcmturner/dnsutils/v2 v2.0.0 // indirect
	github.com/jcmturner/gofork v1.7.6 // indirect
	github.com/jcmturner/gokrb5/v8 v8.4.3 // indirect
	github.com/jcmturner/rpc/v2 v2.0.3 // indirect
	github.com/klauspost/compress v1.16.0 // indirect
	github.com/kr/text v0.2.0 // indirect
	github.com/mattn/go-colorable v0.1.13 // indirect
	github.com/mattn/go-isatty v0.0.18 // indirect
	github.com/matttproud/golang_protobuf_extensions v1.0.4 // indirect
	github.com/pierrec/lz4/v4 v4.1.17 // indirect
	github.com/pmezard/go-difflib v1.0.0 // indirect
	github.com/prometheus/client_model v0.3.0 // indirect
	github.com/prometheus/common v0.42.0 // indirect
	github.com/prometheus/procfs v0.9.0 // indirect
	github.com/rcrowley/go-metrics v0.0.0-20201227073835-cf1acfcdf475 // indirect
	github.com/rogpeppe/go-internal v1.10.0 // indirect
	go.opentelemetry.io/otel/metric v0.37.0 // indirect
	golang.org/x/net v0.8.0 // indirect
	golang.org/x/sys v0.7.0 // indirect
	golang.org/x/text v0.8.0 // indirect
	google.golang.org/genproto v0.0.0-20230110181048-76db0878b65f // indirect
	gopkg.in/yaml.v3 v3.0.1 // indirect
)
